{
  "packages": ["packages/components/*", "packages/core"],
  "npmClient": "yarn",
  "version": "independent",
  "ignoreChanges": ["**/*.lock", "**/*.spec.js", "**/*.md", "**/*.stories.js"],
  "$schema": "node_modules/lerna/schemas/lerna-schema.json"
}
